%YAML 1.1
%TAG !u! tag:unity3d.com,2011:
--- !u!1045 &1
EditorBuildSettings:
  m_ObjectHideFlags: 0
  serializedVersion: 2
  m_Scenes:
  - enabled: 1
    path: Assets/Scenes/SampleScene.unity
    guid: 9fc0d4010bbf28b4594072e72b8655ab
  m_configObjects:
    Unity.XR.Oculus.Settings: {fileID: 11400000, guid: c70d65f124f3e4ebfbd0b5d2f492b072, type: 2}
    com.unity.xr.management.loader_settings: {fileID: 11400000, guid: 04fb5589d6c1647ddabe8c4ba5cb8fb1, type: 2}
